Exploring Diabetes Data Set
…
# A tibble: 10 × 4
# Groups:   GenHlth [5]
   Diabetes GenHlth Count Percentage
   <fct>    <fct>   <int>      <dbl>
 1 0        1       44159      97.5 
 2 1        1        1140       2.52
 3 0        2       82703      92.8 
 4 1        2        6381       7.16
 5 0        3       62189      82.2 
 6 1        3       13457      17.8 
 7 0        4       21780      69.0 
 8 1        4        9790      31.0 
 9 0        5        7503      62.1 
10 1        5        4578      37.9 
# A tibble: 62 × 4
# Groups:   MentHlth [31]
   Diabetes MentHlth  Count Percentage
   <fct>    <fct>     <int>      <dbl>
 1 0        0        152277      86.7 
 2 1        0         23403      13.3 
 3 0        1          7726      90.5 
 4 1        1           812       9.51
 5 0        2         11546      88.4 
 6 1        2          1508      11.6 
 7 0        3          6457      87.5 
 8 1        3           924      12.5 
 9 0        4          3300      87.1 
10 1        4           489      12.9 
# ℹ 52 more rows
# A tibble: 62 × 4
# Groups:   PhysHlth [31]
   Diabetes PhysHlth  Count Percentage
   <fct>    <fct>     <int>      <dbl>
 1 0        0        143312       89.5
 2 1        0         16740       10.5
 3 0        1         10200       89.6
 4 1        1          1188       10.4
 5 0        2         12736       86.3
 6 1        2          2028       13.7
 7 0        3          7206       84.8
 8 1        3          1289       15.2
 9 0        4          3779       83.2
10 1        4           763       16.8
# ℹ 52 more rows
…
  Diabetes DiffWalk  Count Percentage
  <fct>    <fct>     <int>      <dbl>
1 0        0        188780       89.5
2 1        0         22225       10.5
3 0        1         29554       69.3
4 1        1         13121       30.7
# A tibble: 4 × 4
# Groups:   Sex [2]
  Diabetes Sex    Count Percentage
  <fct>    <fct>  <int>      <dbl>
1 0        0     123563       87.0
2 1        0      18411       13.0
3 0        1      94771       84.8
4 1        1      16935       15.2
# A tibble: 26 × 4
# Groups:   Age [13]
   Diabetes Age   Count Percentage
   <fct>    <fct> <int>      <dbl>
 1 0        1      5622      98.6 
 2 1        1        78       1.37
 3 0        2      7458      98.2 
 4 1        2       140       1.84
 5 0        3     10809      97.2 
 6 1        3       314       2.82
 7 0        4     13197      95.5 
 8 1        4       626       4.53
 9 0        5     15106      93.5 
10 1        5      1051       6.50
# ℹ 16 more rows
…
